X associate with Y,X distinguish from Y,0.032275,0.218991,0.24748
X associate with Y,Y distinguish from X,0.029902,0.223175,0.258918
X associate with Y,Y occur X,0.06607,0.053253,0.189542
X avoid in Y,X use in Y,NaN,0.050939,0.37875
X characterize by Y,X distinguish from Y,0.027893,0.03441,0.089583
X characterize by Y,Y distinguish from X,0.02414,0.034798,0.091064
X characterize by Y,Y include X,0.018867,0.039382,0.400896
X confuse with Y,X include Y,0.023729,0.131449,0.599926
X constrict Y,X dilate Y,0.19527,0.71175,0.131942
X contract Y,X die from Y,0.109663,0.514296,0.09669
X contract Y,X die of Y,0.063793,0.356749,0.161741
X contract Y,Y kill X,NaN,0.099147,0.15759
X convert to Y,X derive from Y,0.196386,0.082913,0.224835
X convert to Y,Y convert to X,0.981063,0.998795,1.0
X correct Y,X indicate for Y,0.054838,0.00842,0.051975
X derive from Y,X convert to Y,0.196386,0.082913,0.156075
X derive from Y,X destroy Y,0.296673,0.115434,0.419937
X derive from Y,X kill Y,0.16419,0.063543,0.193977
X destroy Y,X derive from Y,0.296673,0.115434,0.289619
X destroy Y,X produce by Y,0.006195,0.050945,0.090011
X destroy Y,Y produce X,0.492229,0.1545,0.644814
X develop Y,X die of Y,4.449664,0.240418,0.28255
X differ from Y,X confound with Y,0.016319,0.139081,0.085892
X differ from Y,Y include X,0.191746,0.276403,0.893147
X differ from Y,Y resemble X,0.04102,0.468258,0.567518
X differentiate from Y,Y mimic X,0.179863,0.299286,0.182938
X differentiate from Y,Y resemble X,0.05215,0.4255,0.275538
X dilate Y,X constrict Y,0.19527,0.71175,0.159254
X distinguish from Y,X associate with Y,0.032275,0.218991,0.192256
X distinguish from Y,X characterize by Y,0.027893,0.03441,0.008189
X distinguish from Y,X confound with Y,0.085494,0.276606,0.149659
X distinguish from Y,X resemble Y,0.018041,0.259497,0.376305
X distinguish from Y,Y associate with X,0.051464,0.230211,0.220023
X distinguish from Y,Y characterize by X,0.029729,0.040077,0.009371
X distinguish from Y,Y confound with X,0.083795,0.278649,0.173442
X expose to Y,X die of Y,0.065634,0.081265,0.128537
X expose to Y,X protect from Y,NaN,0.378292,0.469208
X get Y,X die from Y,NaN,0.161231,0.104874
X get Y,X die of Y,0.374942,0.190668,0.247295
X get Y,Y kill X,0.138098,0.282573,0.396747
X give to Y,Y produce X,5.018524,0.083897,0.841498
X include Y,X confuse with Y,0.023729,0.131449,0.229388
X include Y,Y differ from X,0.205162,0.277256,0.649114
X include Y,Y substitute for X,0.190259,0.129441,0.415157
X indicate for Y,X correct Y,0.054838,0.00842,0.107841
X kill Y,X derive from Y,0.16419,0.063543,0.163533
X kill Y,X produce by Y,0.032582,0.023177,0.070196
X kill Y,Y produce X,0.205905,0.104872,0.480132
X know as Y,X resemble Y,0.013911,0.085029,0.113376
X mimic Y,Y differentiate from X,0.176846,0.30234,0.275036
X occur Y,Y associate with X,0.077239,0.0561,0.106018
X prevent Y,X produce Y,0.516074,0.186415,0.731931
X produce Y,X prevent Y,0.516074,0.186415,0.687799
X produce Y,X treat with Y,0.103082,0.039833,0.232591
X produce Y,Y destroy X,0.492229,0.1545,0.570507
X produce Y,Y give to X,12.035454,0.08727,0.873727
X produce Y,Y kill X,0.205905,0.104872,0.324022
X produce Y,Y treat by X,0.038258,0.028451,0.038678
X produce Y,Y use in X,29.417893,0.063568,0.570561
X produce by Y,X destroy Y,0.006195,0.050945,0.192515
X produce by Y,X kill Y,0.032582,0.023177,0.07705
X protect from Y,X expose to Y,NaN,0.378292,0.496239
X resemble Y,X confound with Y,0.017297,0.08994,0.051707
X resemble Y,X confuse with Y,0.017658,0.10331,0.060902
X resemble Y,X differ from Y,0.04102,0.468258,0.456788
X resemble Y,X distinguish from Y,0.018041,0.259497,0.351045
X resemble Y,X know as Y,0.013911,0.085029,0.055099
X resemble Y,Y confuse with X,0.018007,0.104828,0.064241
X resemble Y,Y differ from X,0.042309,0.470679,0.469885
X resemble Y,Y differentiate from X,0.056053,0.426333,0.154965
X resemble Y,Y distinguish from X,0.011013,0.264135,0.369949
X simulate Y,X confound with Y,0.026764,0.034925,0.032336
X simulate Y,X differ from Y,0.068982,0.146841,0.202648
X simulate Y,Y confound with X,0.028776,0.037789,0.036646
X simulate Y,Y distinguish from X,0.139252,0.148315,0.453736
X substitute for Y,Y include X,0.144948,0.116734,0.721201
X suffer from Y,X die of Y,NaN,0.367252,0.309068
X treat by Y,Y produce X,0.041704,0.018333,0.269616
X treat with Y,X produce Y,0.103082,0.039833,0.56355
X use in Y,X avoid in Y,NaN,0.050939,0.357285
X use in Y,Y produce X,3.523845,0.050427,0.749739
